{
    "homepage": "https://www.imagemagick.org/script/index.php",
    "license": "ImageMagick",
    "version": "7.0.8-21",
    "architecture": {
        "64bit": {
            "url": "https://www.imagemagick.org/download/binaries/ImageMagick-7.0.8-21-portable-Q16-x64.zip",
            "hash": "43fa793125305b4ee0fc6d16a8b96a09faa91ae312e9e5a3f962c22ee21fc8c8"
        },
        "32bit": {
            "url": "https://www.imagemagick.org/download/binaries/ImageMagick-7.0.8-21-portable-Q16-x86.zip",
            "hash": "1e655c63c8ec29c3a5712f80312366e2fda5d7ddfb89a0c1c406ca6c62560a2a"
        }
    },
    "depends": "ffmpeg",
    "bin": [
        "compare.exe",
        "composite.exe",
        "conjure.exe",
        "convert.exe",
        [
            "convert.exe",
            "imconvert"
        ],
        "dcraw.exe",
        "hp2xx.exe",
        "identify.exe",
        "IMDisplay.exe",
        "magick.exe",
        "mogrify.exe",
        "montage.exe",
        "stream.exe"
    ],
    "checkver": "The current release is ImageMagick <a.*?>([0-9\\.p-]+)</a>",
    "autoupdate": {
        "architecture": {
            "64bit": {
                "url": "https://www.imagemagick.org/download/binaries/ImageMagick-$version-portable-Q16-x64.zip"
            },
            "32bit": {
                "url": "https://www.imagemagick.org/download/binaries/ImageMagick-$version-portable-Q16-x86.zip"
            }
        },
        "hash": {
            "mode": "rdf",
            "url": "https://www.imagemagick.org/download/binaries/digest.rdf"
        }
    }
}
